32 -16 -24 -16 -56 24 -56 -104 600
24 -24 40 -64 -32 -64 -80 608
72 -16 8 -136 -80 -16 -152 456
-8 32 -56 -96 -56 -48 648
-64 -24 24 -8 -64 768
176 -72 -136 -40 536
48 -8 -72 -56 -56 -128 576
-16 40 -8 -64 -56 -56 -40 -80 568
-48 32 -8 -64 -64 -56 672
